// Jest Snapshot v1, https://goo.gl/fbAQLP

exports[`SlotMachine Component should render properly 1`] = `
<div
  className="slot-machine"
>
  <div
    className="panel-container"
  >
    Press Spin button to start
  </div>
  <ApiTrigger
    method="post"
    onSuccess={[Function]}
    render={[Function]}
    resource="/spin"
  />
</div>
`;

exports[`SlotMachine Component when spin button is clicked should render panel with gameState 1`] = `
Array [
  Object {
    "slots": Array [
      Object {
        "active": true,
        "symbol": "GG",
      },
      Object {
        "active": false,
        "symbol": "GG",
      },
      Object {
        "active": false,
        "symbol": "CC",
      },
    ],
  },
  Object {
    "slots": Array [
      Object {
        "active": true,
        "symbol": "GG",
      },
      Object {
        "active": false,
        "symbol": "GG",
      },
      Object {
        "active": false,
        "symbol": "EE",
      },
    ],
  },
  Object {
    "slots": Array [
      Object {
        "active": true,
        "symbol": "GG",
      },
      Object {
        "active": false,
        "symbol": "FF",
      },
      Object {
        "active": false,
        "symbol": "FF",
      },
    ],
  },
  Object {
    "slots": Array [
      Object {
        "active": true,
        "symbol": "EE",
      },
      Object {
        "active": false,
        "symbol": "FF",
      },
      Object {
        "active": false,
        "symbol": "GG",
      },
    ],
  },
  Object {
    "slots": Array [
      Object {
        "active": true,
        "symbol": "FF",
      },
      Object {
        "active": false,
        "symbol": "DD",
      },
      Object {
        "active": false,
        "symbol": "BB",
      },
    ],
  },
]
`;
