// Jest Snapshot v1, https://goo.gl/fbAQLP

exports[`SlotMachineSlot Component should should render properly 1`] = `
<div
  className="panel"
>
  <SlotMachineReel
    key="0"
    slots={
      Array [
        Object {
          "active": true,
          "symbol": "AA",
        },
        Object {
          "active": false,
          "symbol": "BB",
        },
      ]
    }
  />
</div>
`;
